RESOLUCIÃ“N_PARCIAL
…
b.Calcule la serie de tiempo de temperatura mensual ( si el de dias con missing values), en un mes, supera el 5%, la temperatura mensual seria considerado como un NA) mas, identifique,visualmente, posibles atipicos y describa una posible causa.

data6 <- data3 %>%  group_by(DATE = str_sub(DATE, 1, 7)) %>% 
  mutate(missVal = sum(is.na(temp)) * 100 / n()) %>%   
  summarize(
    temp = mean(temp , na.rm = T),
    missVal = unique(missVal)
    ) %>% 
  mutate(temp = ifelse(missVal >=5 , NA , temp),
         DATE = as.Date(sprintf("%1$s-01", DATE)),
         month= str_sub(DATE, 6, 7)
         )
data6

## # A tibble: 1,044 x 4
##    DATE        temp missVal month
##    <date>     <dbl>   <dbl> <chr>
##  1 1928-11-01    NA     100 11   
##  2 1928-12-01    NA     100 12   
##  3 1929-01-01    NA     100 01   
##  4 1929-02-01    NA     100 02   
##  5 1929-03-01    NA     100 03   
##  6 1929-04-01    NA     100 04   
##  7 1929-05-01    NA     100 05   
##  8 1929-06-01    NA     100 06   
##  9 1929-07-01    NA     100 07   
## 10 1929-08-01    NA     100 08   
## # ... with 1,034 more rows
…
